%YAML 1.1
%TAG !u! tag:unity3d.com,2011:
--- !u!1001 &100100000
Prefab:
  m_ObjectHideFlags: 1
  serializedVersion: 2
  m_Modification:
    m_TransformParent: {fileID: 0}
    m_Modifications: []
    m_RemovedComponents: []
  m_SourcePrefab: {fileID: 0}
  m_RootGameObject: {fileID: 1000012987505042}
  m_IsPrefabAsset: 1
--- !u!1 &1000012987505042
GameObject:
  m_ObjectHideFlags: 0
  m_CorrespondingSourceObject: {fileID: 0}
  m_PrefabInternal: {fileID: 100100000}
  serializedVersion: 6
  m_Component:
  - component: {fileID: 4000011057120046}
  - component: {fileID: 114000012645537676}
  m_Layer: 0
  m_Name: panelPrincipal 1
  m_TagString: Untagged
  m_Icon: {fileID: 0}
  m_NavMeshLayer: 0
  m_StaticEditorFlags: 0
  m_IsActive: 1
--- !u!4 &4000011057120046
Transform:
  m_ObjectHideFlags: 1
  m_CorrespondingSourceObject: {fileID: 0}
  m_PrefabInternal: {fileID: 100100000}
  m_GameObject: {fileID: 1000012987505042}
  m_LocalRotation: {x: 0, y: 0, z: 0, w: 1}
  m_LocalPosition: {x: -97.72159, y: -89.042175, z: -234.65996}
  m_LocalScale: {x: 1, y: 1, z: 1}
  m_Children: []
  m_Father: {fileID: 0}
  m_RootOrder: 0
  m_LocalEulerAnglesHint: {x: 0, y: 0, z: 0}
--- !u!114 &114000012645537676
MonoBehaviour:
  m_ObjectHideFlags: 1
  m_CorrespondingSourceObject: {fileID: 0}
  m_PrefabInternal: {fileID: 100100000}
  m_GameObject: {fileID: 1000012987505042}
  m_Enabled: 1
  m_EditorHideFlags: 0
  m_Script: {fileID: 11500000, guid: 4fbd13c0cf98dc2498030db612680f93, type: 3}
  m_Name: 
  m_EditorClassIdentifier: 
  sombra: {fileID: 2800000, guid: 75c4bfd7c87caf64d906ca707654554c, type: 3}
  sombraVolumen: {fileID: 2800000, guid: 994fdf9a52bb50b47a63c4e196445ccc, type: 3}
  botonGris: {fileID: 0}
  colaboradores: []
  crearEstudio: {fileID: 1000013598135008, guid: 95648df77f3db5b4ab777af32db0b358,
    type: 2}
  veureEstudios: {fileID: 1000011472403532, guid: 4febc14c1aaf53a4cb17410d92b66195,
    type: 2}
  gestioDePacients: {fileID: 1000012125601602, guid: bffaf37f0faf38f4289a8e6413161139,
    type: 2}
  gestioDePersonal: {fileID: 1000011701581310, guid: 7a6aa2654566cac46ad6b835336f363d,
    type: 2}
